{
    "data": [
        {
            "label":"Chanakya Lokam",
            "role": "Director for Marketing & Innvotions",
            "imgUrl" : "assets/img/profiles/9x.jpg",
            "expanded": true,
            "children":[{
                      "label" : "Siva Kusampudi",
                      "role" : "Manager - Web, Social & Content",
                      "imgUrl" : "assets/img/profiles/6x.jpg",
                      
                      "children" : [
                                    {
                                        "label" : "Deepika Rangoori",
                                        "role" : "Lead - Webmaster",
                                        "imgUrl" : "assets/img/profiles/3x.jpg",
                                        
                                        "children": []
                                    },
                                    {
                                        "label" : "Srinivas Patnala",
                                        "role" : "Lead - Webmaster & Social",
                                        "imgUrl" : "assets/img/profiles/3x.jpg",  
                                        
                                        "children": []
                                    },
                                    {
                                        "label" : "Pooja Dangeti",
                                        "role" : "Lead - Content Analyst",
                                        "imgUrl" : "assets/img/profiles/3x.jpg", 
                                                               
                                        "children": []
                                    },
                                    {
                                        "label" : "Praveen kommula",
                                        "role" : "Lead - Content Analyst",
                                        "imgUrl" : "assets/img/profiles/3x.jpg",
                                        
                                        "children": []
                                    }
      
                                  ]
            },
            {
              "label":"Diana Ponduri",
              "role":"Manager - Market Analysis",
              "imgUrl":"assets/img/profiles/6x.jpg",
              "expanded": true,              
              "children":[
                {
                  "label" : "Gowtham Sala",
                  "role" : "Lead - Market Exploration",
                  "imgUrl" : "assets/img/profiles/3x.jpg",
                  "children": []
              },
              {
                  "label" : "Prabhakar",
                  "role" : "Lead - Market Analysis",
                  "imgUrl" : "assets/img/profiles/3x.jpg",    
                                      
                  "children": []
              }
              ]
            }
          ]
          }
    ]
}
